…
``` r
survey
```

    ## # A tibble: 50 × 8
    ##       X1           Timestamp   R_exp   GoT Age_yrs Sleep_hrs   Fav_date
    ##    <int>              <dttm>   <chr> <int>   <int>     <dbl>     <date>
    ## 1      1 2017-08-12 07:30:39 limited     1      53  7.348351 2017-08-12
    ## 2      2 2017-08-12 07:30:39    lots     2      52  7.619878 2017-08-12
    ## 3      3 2017-08-12 07:30:39    none     6      33  8.411470 2017-08-12
    ## 4      4 2017-08-12 07:30:39     pro     2      54  8.231536 2017-08-12
    ## 5      5 2017-08-12 07:30:39     pro     5      38  8.179473 2017-08-12
    ## 6      6 2017-08-12 07:30:39    none     3      45  8.368195 2017-08-12
    ## 7      7 2017-08-12 07:30:39    lots     3      39  9.608013 2017-08-12
    ## 8      8 2017-08-12 07:30:39    some     5      37  7.876698 2017-08-12
    ## 9      9 2017-08-12 07:30:39    none     7      28  7.506042 2017-08-12
    ## 10    10 2017-08-12 07:30:39    none     5      40  7.368981 2017-08-12
    ## # ... with 40 more rows, and 1 more variables: Tidy_data <chr>
…
