Analysis of bootcamp survey
…
## Parsed with column specification:
## cols(
##   Timestamp = col_character(),
##   `Your current level of experience/expertise with R` = col_character(),
##   `Your enthusiasm for Game of Thrones` = col_integer(),
##   `Age in years` = col_integer(),
##   `Preferred number of hours spent sleeping/day` = col_character(),
##   `Favorite day of the week` = col_character(),
##   `Are your data tidy?` = col_character()
## )

survey

## # A tibble: 35 x 7
##             Timestamp `Your current level of experience/expertise with R`
##                 <chr>                                               <chr>
##  1               <NA>                                                <NA>
##  2 8/13/2017 23:29:24                                                some
##  3 8/14/2017 12:01:12                                                some
##  4 8/15/2017 12:42:09                                                some
##  5 8/15/2017 17:13:08                                                none
##  6 8/15/2017 19:03:40                                             limited
##  7 8/15/2017 23:36:07                                                some
##  8 8/15/2017 23:45:05                                             limited
##  9  8/16/2017 0:26:01                                                 pro
## 10  8/16/2017 1:09:44                                                none
## # ... with 25 more rows, and 5 more variables: `Your enthusiasm for Game
## #   of Thrones` <int>, `Age in years` <int>, `Preferred number of hours
## #   spent sleeping/day` <chr>, `Favorite day of the week` <chr>, `Are your
## #   data tidy?` <chr>
…
Let's start by renaming variables

names(survey) <- c("Timestamp",
                  "R_exp",
                  "GoT",
                  "Age_yrs",
                  "Sleep_hrs",
                  "Fav_day",
                  "Tidy_data")

# complete.cases() drops NAs
survey <- survey[complete.cases(survey),]
survey

## # A tibble: 34 x 7
##             Timestamp   R_exp   GoT Age_yrs Sleep_hrs  Fav_day
##                 <chr>   <chr> <int>   <int>     <chr>    <chr>
##  1 8/13/2017 23:29:24    some    10      28      8!!!   Friday
##  2 8/14/2017 12:01:12    some    10      22         7   Friday
##  3 8/15/2017 12:42:09    some    10      24        10 Saturday
##  4 8/15/2017 17:13:08    none    10      28         9 Saturday
##  5 8/15/2017 19:03:40 limited    10      24         9 Saturday
##  6 8/15/2017 23:36:07    some    10      23       6-7   Friday
##  7 8/15/2017 23:45:05 limited     3      25         8   Friday
##  8  8/16/2017 0:26:01     pro     9      37         7   Friday
##  9  8/16/2017 1:09:44    none    10      25         9 Saturday
## 10  8/16/2017 8:51:05 limited     1      23       7.5 Thursday
## # ... with 24 more rows, and 1 more variables: Tidy_data <chr>

Now, lets make sure we have numbers where we expect them.

survey$Sleep_hrs <- readr::parse_number(survey$Sleep_hrs)
survey

## # A tibble: 34 x 7
##             Timestamp   R_exp   GoT Age_yrs Sleep_hrs  Fav_day
##                 <chr>   <chr> <int>   <int>     <dbl>    <chr>
##  1 8/13/2017 23:29:24    some    10      28       8.0   Friday
##  2 8/14/2017 12:01:12    some    10      22       7.0   Friday
##  3 8/15/2017 12:42:09    some    10      24      10.0 Saturday
##  4 8/15/2017 17:13:08    none    10      28       9.0 Saturday
##  5 8/15/2017 19:03:40 limited    10      24       9.0 Saturday
##  6 8/15/2017 23:36:07    some    10      23       6.0   Friday
##  7 8/15/2017 23:45:05 limited     3      25       8.0   Friday
##  8  8/16/2017 0:26:01     pro     9      37       7.0   Friday
##  9  8/16/2017 1:09:44    none    10      25       9.0 Saturday
## 10  8/16/2017 8:51:05 limited     1      23       7.5 Thursday
## # ... with 24 more rows, and 1 more variables: Tidy_data <chr>
…
